<svg xmlns="http://www.w3.org/2000/svg" width="145" height="24" viewBox="0 0 145 24">
  <g fill="none" fill-rule="evenodd">
    <path fill="#2E2E2E" fill-rule="nonzero" d="M30.8760924 18.1854545C26.6456554 18.1854545 24.4215547 15.2304718 24.4215547 12.0028999 24.4215547 8.7289298 26.7821211 5.91314154 30.9573911 5.91314154 35.1326611 5.91314154 37.3451477 8.93482163 37.3451477 12.1188953 37.3451477 15.3029689 35.0223271 18.1854545 30.8760924 18.1854545zM30.7773725 7.57767549C28.4748766 7.57767549 27.9319173 10.2629689 27.9319173 11.7100115 27.9319173 13.1570541 28.6636058 16.3121289 31.0212687 16.3121289 33.2744046 16.3121289 33.8696274 13.5601381 33.8696274 12.1594937 33.8580133 10.6022555 33.2337553 7.57767549 30.7773725 7.57767549zM44.2003719 18.1622555C43.3404845 18.1937954 42.4879634 17.9934537 41.732375 17.5822785L41.732375 22.6976755C41.732375 23.036962 41.6510763 23.1935558 41.1894157 23.1935558L39.0495173 23.1935558C38.6691554 23.1935558 38.3991275 23.1500575 38.3991275 22.7672727L38.3991275 8.41284235C38.3991275 7.85026467 38.3991275 7.48777906 38.8869198 7.05859609 39.8073375 6.22632911 42.6266609 5.89864212 43.930344 5.89864212 48.1869127 5.89864212 50.1932489 8.19825086 50.1932489 11.5157192 50.1932489 14.4852014 48.3495101 18.1622555 44.2003719 18.1622555zM43.3873847 7.55737629C42.2492026 7.55737629 41.732375 8.03005754 41.732375 8.93192175L41.732375 15.8394476C42.3195473 16.1495191 42.9678474 16.3267365 43.6312808 16.358527 46.1660588 16.358527 46.7467639 13.5601381 46.7467639 11.9565017 46.7467639 10.1962716 46.0702424 7.55737629 43.3873847 7.55737629zM57.7017664 18.1854545C53.474233 18.1854545 51.2501323 15.2304718 51.2501323 12.0028999 51.2501323 8.7289298 53.6077952 5.91314154 57.7830652 5.91314154 61.9583351 5.91314154 64.1708217 8.93482163 64.1708217 12.1188953 64.1708217 15.3029689 61.8450976 18.1854545 57.7017664 18.1854545zM57.594336 7.57767549C55.2889366 7.57767549 54.7459773 10.2629689 54.7459773 11.7100115 54.7459773 13.1570541 55.4805693 16.3121289 57.8382321 16.3121289 60.0884646 16.3121289 60.6865909 13.5601381 60.6865909 12.1594937 60.6836873 10.6022555 60.0623328 7.57767549 57.594336 7.57767549zM76.6763069 16.8312083C75.8052492 17.846168 72.9888293 18.1854545 71.5806193 18.1854545 67.2688836 18.1854545 65.2073804 15.7466513 65.2073804 12.3624856 65.2073804 9.36110472 67.1062862 5.88704258 71.2263892 5.88704258 72.0863015 5.88736315 72.9332601 6.09634936 73.694386 6.49601841L73.694386 1.07903337C73.694386.762945915 73.8860187.629551208 74.2750912.629551208L76.4178932.629551208C76.798255.629551208 77.0682829.673049482 77.0682829 1.0355351L77.0682829 15.679954C77.0876696 16.099344 76.9476597 16.5105603 76.6763069 16.8312083zM73.694386 7.98655926C73.1776746 7.62440964 72.5631627 7.42724397 71.9319459 7.4210817 69.3013516 7.4210817 68.5986984 10.2194707 68.5986984 11.9130035 68.5986984 13.6732336 69.3013516 16.358527 72.0132447 16.358527 73.1746549 16.358527 73.694386 15.8162486 73.694386 14.9085846L73.694386 7.98655926zM84.5477651 18.1564557C80.3173282 18.1564557 78.096131 15.1985731 78.096131 11.973901 78.096131 8.69993096 80.4537939 5.88414269 84.6290639 5.88414269 88.8043338 5.88414269 91.0168204 8.90872267 91.0168204 12.0927963 91.0168204 15.27687 88.6969034 18.1564557 84.5477651 18.1564557zM84.4403347 7.54867664C82.1349353 7.54867664 81.591976 10.2339701 81.591976 11.6781128 81.591976 13.1222555 82.3236644 16.28313 84.6842309 16.28313 86.9344633 16.28313 87.529686 13.5311392 87.529686 12.1304948 87.529686 10.5732566 86.9083315 7.54867664 84.4403347 7.54867664z"/>
    <path fill="#F60" d="M2.032468.545454545L2.16893371.545454545C2.6715176.544684677 3.15378093.743545567 3.50943405 1.09820876 3.86508716 1.45287195 4.06493658 1.93422523 4.06493599 2.43617952L4.06493599 4.60529344C4.06493599 5.64951201 3.21736681 6.49601841 2.17183723 6.49601841L1.89309876 6.49601841C.847569186 6.49601841 1.28040445e-16 5.64951201 0 4.60529344L0 2.43617952C-1.28040445e-16 1.39196095.847569186.545454545 1.89309876.545454545L2.032468.545454545zM6.9684617.545454545L7.10202389.545454545C7.60460778.544684677 8.08687111.743545567 8.44252423 1.09820876 8.79817734 1.45287195 8.99802677 1.93422523 8.99802617 2.43617952L8.99802617 4.60529344C8.99802677 5.10724772 8.79817734 5.58860101 8.44252423 5.9432642 8.08687111 6.29792739 7.60460778 6.49678828 7.10202389 6.49601841L6.831996 6.49601841C6.3294121 6.49678828 5.84714877 6.29792739 5.49149565 5.9432642 5.13584254 5.58860101 4.93599312 5.10724772 4.93599371 4.60529344L4.93599371 2.43617952C4.93597412 1.39647413 5.77648723.551833106 6.81747837.545454545L6.9684617.545454545zM11.9044554.545454545L12.0380176.545454545C12.541104.543913263 13.0241143.742433449 13.3803961 1.09718035 13.7366779 1.45192726 13.9369258 1.93372158 13.9369234 2.43617952L13.9369234 4.60529344C13.936924 5.10724772 13.7370746 5.58860101 13.3814215 5.9432642 13.0257683 6.29792739 12.543505 6.49678828 12.0409211 6.49601841L11.7708932 6.49601841C11.2678068 6.49755969 10.7847966 6.29903951 10.4285147 5.9442926 10.0722329 5.5895457 9.87198505 5.10775137 9.87198741 4.60529344L9.87198741 2.43617952C9.87198208 1.93321712 10.0726283 1.45098071 10.4295393 1.09614985 10.7864504.741318994 11.2702082.543140301 11.7737968.545454545L11.9044554.545454545zM16.8665808.545454545L17.000143.545454545C18.0461433.54545332 18.8945435 1.39149204 18.8961453 2.43617952L18.8961453 4.60529344C18.8945435 5.64998092 18.0461433 6.49601964 17.000143 6.49601841L16.7301151 6.49601841C15.6845856 6.49601841 14.8370164 5.64951201 14.8370164 4.60529344L14.8370164 2.43617952C14.8370164 1.39196095 15.6845856.545454545 16.7301151.545454545L16.8665808.545454545zM21.7764428.545454545L21.9129085.545454545C22.4154924.544684677 22.8977558.743545567 23.2534089 1.09820876 23.609062 1.45287195 23.8089114 1.93422523 23.8089108 2.43617952L23.8089108 4.60529344C23.8089108 5.64951201 22.9613416 6.49601841 21.9158121 6.49601841L21.6428806 6.49601841C21.1397942 6.49755969 20.656784 6.29903951 20.3005021 5.9442926 19.9442203 5.5895457 19.7439725 5.10775137 19.7439748 4.60529344L19.7439748 2.43617952C19.7439695 1.93321712 19.9446157 1.45098071 20.3015267 1.09614985 20.6584378.741318994 21.1421956.543140301 21.6457842.545454545L21.7764428.545454545z"/>
    <path fill="#F60" fill-rule="nonzero" d="M103.124523 16.0018412C103.590101 15.4408391 103.937701 14.7918783 104.146564 14.0937169 104.38973 13.29094 104.509173 12.4558821 104.500794 11.6172152 104.513825 10.7426456 104.371276 9.87271177 104.079783 9.04791715 103.827463 8.33833853 103.432192 7.6879455 102.918372 7.13689298 102.413982 6.61485455 101.802984 6.20737407 101.126897 5.94214039 100.37962 5.65511843 99.584305 5.51338138 98.7837517 5.52455696 97.900409 5.50975011 97.0176523 5.57868968 96.1473504 5.73044879 95.6321868 5.83013 95.1224415 5.95595471 94.6200958 6.10743383L94.6200958 21.7668124 95.604391 21.7668124 95.604391 16.410725 96.0486305 16.7500115C96.4259048 17.0082499 96.8360245 17.2150032 97.2681113 17.3647871 97.9068554 17.5924437 98.5818957 17.7015334 99.2599299 17.6866743 100.027876 17.7019239 100.789895 17.5495133 101.492741 17.2400921 102.121427 16.9525512 102.67866 16.5297039 103.124523 16.0018412zM101.135608 16.4252244C100.500623 16.7229773 99.8043019 16.8670345 99.1031395 16.8457077 98.7343115 16.8470545 98.3663899 16.8091419 98.0056068 16.7326122 97.6768748 16.6624752 97.3544672 16.5654862 97.0416363 16.4426237 96.7700596 16.3406169 96.5077748 16.2154602 96.2576843 16.0685386 96.0639271 15.9556313 95.8768253 15.8316986 95.6973039 15.6973533L95.5927769 15.6132566 95.5927769 6.77150748 95.7815061 6.70771001C96.1405787 6.60064011 96.5075669 6.52209838 96.8790388 6.47281933 97.4989151 6.39198391 98.1238423 6.35612473 98.7489094 6.36552359 100.025939 6.31443558 101.263342 6.8140576 102.146034 7.73716916 102.993864 8.64193326 103.423586 9.94688147 103.423586 11.6172152 103.425997 12.2846296 103.35196 12.9501292 103.202918 13.6007365 103.071224 14.2008996 102.824753 14.770025 102.477036 15.27687 102.131968 15.7646575 101.671037 16.1592461 101.135608 16.4252244zM110.136537 6.3452244C110.663434 6.33602172 111.190099 6.3738708 111.710248 6.45831991 111.919302 6.49601841 112.087707 6.53081703 112.227076 6.56851554L112.409998 5.78554661C112.267725 5.74494822 112.061575 5.69855006 111.753801 5.64345224 111.29721 5.56622722 110.834811 5.52838912 110.371723 5.53035673 109.545051 5.51425179 108.719672 5.6029224 107.91534 5.79424626 107.432478 5.91418656 106.95736 6.06332218 106.492612 6.24082854L106.492612 17.4024856 107.474004 17.4024856 107.474004 6.82370541 107.627891 6.7483084C107.900862 6.6306355 108.18624 6.54405934 108.478624 6.49021864 109.024185 6.38074968 109.58023 6.33212032 110.136537 6.3452244z"/>
    <rect width="1" height="11.64" x="113.435" y="5.759" fill="#F60" fill-rule="nonzero"/>
    <path fill="#F60" fill-rule="nonzero" d="M114.526668 1.14283084C114.182797.821297828 113.648154.821297828 113.304284 1.14283084 113.131426 1.31920369 113.041711 1.56060387 113.057484 1.80690449 113.042549 2.05221905 113.132201 2.29239786 113.304284 2.46807825 113.647006 2.79250187 114.183946 2.79250187 114.526668 2.46807825 114.697691 2.29190362 114.786267 2.05178657 114.770564 1.80690449 114.787103 1.56103774 114.698466 1.3196997 114.526668 1.14283084zM128.814918 6.36552359C129.384926 6.34484037 129.952094 6.45495717 130.472831 6.68741082 130.908971 6.90245484 131.267951 7.24680603 131.500679 7.67337169 131.752823 8.16316543 131.908556 8.69671828 131.959436 9.24510932 132.035536 9.9491027 132.071405 10.6568554 132.066867 11.3649252L132.066867 17.4024856 133.048259 17.4024856 133.048259 10.8632451C133.052335 10.1196994 132.997969 9.37698117 132.885661 8.64193326 132.804059 8.04802739 132.600423 7.47737818 132.287535 6.96579977 131.989928 6.50518867 131.566861 6.13899054 131.068054 5.91024166 130.392402 5.6275924 129.663027 5.49595496 128.931059 5.52455696 128.433071 5.5196794 127.936184 5.57222503 127.450261 5.68115075 126.7444 5.84098883 126.070871 6.11947627 125.458442 6.50471807 125.240678 6.64681243 125.095502 6.7483084 125.02001 6.80920598L124.799342 6.98319908 124.628034 6.76280783C123.995065 5.94214039 122.938182 5.52455696 121.49513 5.52455696 120.560649 5.50700749 119.626782 5.58376057 118.707745 5.75364787 118.086391 5.88704258 117.560852 6.01173763 117.142745 6.12193326L117.142745 17.4024856 118.124136 17.4024856 118.124136 6.79180667 118.289637 6.71930955C118.628455 6.59973739 118.980323 6.52088538 119.33781 6.48441887 119.973845 6.39860309 120.615263 6.35886756 121.257041 6.36552359 121.845962 6.34300259 122.432418 6.453011 122.973024 6.68741082 123.41551 6.90045309 123.782245 7.24345632 124.024101 7.67047181 124.28382 8.15612745 124.444673 8.68834389 124.497375 9.23640967 124.573319 9.9404154 124.609187 10.6481592 124.604806 11.3562255L124.604806 17.4024856 125.586198 17.4024856 125.586198 10.7327503C125.588027 10.2051198 125.5531 9.67800145 125.481671 9.15521289 125.422834 8.70377372 125.320743 8.25901802 125.1768 7.82706559L125.112923 7.64147296 125.26681 7.51967779C125.348108 7.45588032 125.481671 7.35728423 125.6704 7.2296893 125.904286 7.07291086 126.152132 6.93797965 126.410799 6.82660529 126.751342 6.68610461 127.104173 6.57737871 127.464779 6.50181818 127.908281 6.40594498 128.361177 6.36022574 128.814918 6.36552359zM143.515469 16.2976295C143.309318 16.3817261 143.050905 16.4716226 142.737324 16.587618 142.064974 16.7754916 141.367816 16.8595934 140.670014 16.8370081 139.078881 16.8370081 137.897147 16.3991254 137.153844 15.5378596 136.410541 14.6765938 136.027276 13.4760414 135.975013 11.9217031L135.975013 11.6317146 144.58687 11.6317146C144.58687 11.5998159 144.58687 11.5679171 144.58687 11.5360184 144.58687 11.4171231 144.58687 11.2982278 144.58687 11.1764327 144.58687 9.2306099 144.162955 7.77776755 143.323836 6.85850403 142.484717 5.93924051 141.401702 5.47525892 139.949939 5.47525892 139.309633 5.47635066 138.675612 5.60142017 138.082972 5.8435443 137.473751 6.09594451 136.927568 6.47908021 136.48313 6.96579977 135.978816 7.52178729 135.584709 8.16829604 135.321719 8.87102417 135.010723 9.73547136 134.861136 10.6495624 134.880383 11.5679171 134.872569 12.406052 134.980036 13.2412884 135.199771 14.0502186 135.390054 14.7537736 135.734152 15.4064427 136.207295 15.9612428 136.687261 16.5095283 137.290153 16.9367863 137.966831 17.2081933 138.813487 17.5296824 139.715265 17.6814325 140.620654 17.6547756 141.316028 17.6665891 142.009716 17.5826701 142.682157 17.4053855 143.022578 17.3159579 143.357124 17.2055508 143.683873 17.0747986L143.515469 16.2976295zM136.024372 10.5848562C136.055565 10.0339204 136.168082 9.49060968 136.358278 8.97252014 136.541711 8.47102098 136.815254 8.00717163 137.165458 7.60377445 137.507254 7.21288748 137.920046 6.8901521 138.382035 6.6526122 138.8804 6.40814874 139.429611 6.28493005 139.984782 6.29302647 140.990177 6.24686443 141.958544 6.67671001 142.597955 7.45298044 143.198984 8.20405063 143.521276 9.25960875 143.556118 10.5906559L143.556118 10.8806444 136.006951 10.8806444 136.024372 10.5848562z"/>
  </g>
</svg>
